^C:\ОСНОВИ ПРОГРАМУВАННЯ (ФУТБОЛ)\SOCCER\SOCCER\SOCCER\SOURCE.CPP
C:\основи програмування (футбол)\SOCCER\SOCCER\SOCCER\DEBUG\VC120.PDB
C:\основи програмування (футбол)\SOCCER\SOCCER\SOCCER\DEBUG\VC120.IDB
C:\Основи програмування (Футбол)\SOCCER\SOCCER\SOCCER\DEBUG\SOURCE.OBJ
^C:\ОСНОВИ ПРОГРАМУВАННЯ (ФУТБОЛ)\SOCCER\SOCCER\SOCCER\MAIN.CPP
C:\основи програмування (футбол)\SOCCER\SOCCER\SOCCER\DEBUG\VC120.PDB
C:\основи програмування (футбол)\SOCCER\SOCCER\SOCCER\DEBUG\VC120.IDB
C:\Основи програмування (Футбол)\SOCCER\SOCCER\SOCCER\DEBUG\MAIN.OBJ
